{
  "namespace": "my.shop",
  "definitions": {
    "CatalogService": {
      "@source": "srv/cat-service.cds",
      "kind": "service",
      "@requires": [
        "ShowService",
        "system-user"
      ]
    },
    "CatalogService.Categories": {
      "kind": "entity",
      "@cds.persistence.name": "CATALOGSERVICE_CATEGORIES",
      "query": {
        "SELECT": {
          "from": {
            "ref": [
              "my.shop.Categories"
            ]
          }
        }
      },
      "elements": {
        "ID": {
          "@cds.persistence.name": "ID",
          "key": true,
          "type": "cds.Integer"
        },
        "catName": {
          "@cds.persistence.name": "CATNAME",
          "type": "cds.String"
        },
        "prod": {
          "@cds.persistence.name": "PROD",
          "type": "cds.Association",
          "cardinality": {
            "min": 0,
            "max": "*"
          },
          "target": "CatalogService.Product",
          "on": [
            {
              "ref": [
                "prod",
                "category"
              ]
            },
            "=",
            {
              "ref": [
                "$self"
              ]
            }
          ]
        }
      },
      "$syntax": "projection"
    },
    "CatalogService.Comments": {
      "kind": "entity",
      "@cds.persistence.name": "CATALOGSERVICE_COMMENTS",
      "query": {
        "SELECT": {
          "from": {
            "ref": [
              "my.shop.Comments"
            ]
          }
        }
      },
      "elements": {
        "createdAt": {
          "@Common.Label": "{i18n>CreatedAt}",
          "@Core.Computed": true,
          "@Core.Immutable": true,
          "@UI.HiddenFilter": true,
          "@cds.on.insert": {
            "=": "$now"
          },
          "@cds.persistence.name": "CREATEDAT",
          "@odata.on.insert": {
            "#": "now"
          },
          "@readonly": true,
          "type": "cds.Timestamp"
        },
        "createdBy": {
          "@Common.Label": "{i18n>CreatedBy}",
          "@Core.Computed": true,
          "@Core.Description": "{i18n>UserID.Description}",
          "@Core.Immutable": true,
          "@UI.HiddenFilter": true,
          "@cds.on.insert": {
            "=": "$user"
          },
          "@cds.persistence.name": "CREATEDBY",
          "@odata.on.insert": {
            "#": "user"
          },
          "@readonly": true,
          "type": "cds.String",
          "length": 255
        },
        "modifiedAt": {
          "@Common.Label": "{i18n>ChangedAt}",
          "@Core.Computed": true,
          "@UI.HiddenFilter": true,
          "@cds.on.insert": {
            "=": "$now"
          },
          "@cds.on.update": {
            "=": "$now"
          },
          "@cds.persistence.name": "MODIFIEDAT",
          "@odata.on.update": {
            "#": "now"
          },
          "@readonly": true,
          "type": "cds.Timestamp"
        },
        "modifiedBy": {
          "@Common.Label": "{i18n>ChangedBy}",
          "@Core.Computed": true,
          "@Core.Description": "{i18n>UserID.Description}",
          "@UI.HiddenFilter": true,
          "@cds.on.insert": {
            "=": "$user"
          },
          "@cds.on.update": {
            "=": "$user"
          },
          "@cds.persistence.name": "MODIFIEDBY",
          "@odata.on.update": {
            "#": "user"
          },
          "@readonly": true,
          "type": "cds.String",
          "length": 255
        },
        "ID": {
          "@cds.persistence.name": "ID",
          "key": true,
          "type": "cds.UUID"
        },
        "comment": {
          "@cds.persistence.name": "COMMENT",
          "type": "cds.String"
        },
        "prodId": {
          "@cds.persistence.name": "PRODID",
          "type": "cds.Association",
          "cardinality": {
            "max": 1
          },
          "target": "CatalogService.Product",
          "keys": [
            {
              "ref": [
                "ID"
              ],
              "$generatedFieldName": "prodId_ID"
            }
          ]
        },
        "prodId_ID": {
          "@cds.persistence.name": "PRODID_ID",
          "@odata.foreignKey4": "prodId",
          "type": "cds.Integer"
        }
      },
      "$syntax": "projection"
    },
    "CatalogService.Product": {
      "kind": "entity",
      "@cds.persistence.name": "CATALOGSERVICE_PRODUCT",
      "query": {
        "SELECT": {
          "from": {
            "ref": [
              "my.shop.Product"
            ]
          }
        }
      },
      "elements": {
        "ID": {
          "@cds.persistence.name": "ID",
          "key": true,
          "type": "cds.Integer"
        },
        "prodName": {
          "@cds.persistence.name": "PRODNAME",
          "type": "cds.String"
        },
        "price": {
          "@cds.persistence.name": "PRICE",
          "type": "cds.Integer"
        },
        "stock": {
          "@cds.persistence.name": "STOCK",
          "type": "cds.Integer"
        },
        "description": {
          "@cds.persistence.name": "DESCRIPTION",
          "type": "cds.String"
        },
        "category": {
          "@cds.persistence.name": "CATEGORY",
          "type": "cds.Association",
          "cardinality": {
            "max": 1
          },
          "target": "CatalogService.Categories",
          "keys": [
            {
              "ref": [
                "ID"
              ],
              "$generatedFieldName": "category_ID"
            }
          ]
        },
        "comment": {
          "@cds.persistence.name": "COMMENT",
          "type": "cds.Association",
          "cardinality": {
            "min": 0,
            "max": "*"
          },
          "target": "CatalogService.Comments",
          "on": [
            {
              "ref": [
                "comment",
                "prodId"
              ]
            },
            "=",
            {
              "ref": [
                "$self"
              ]
            }
          ]
        },
        "category_ID": {
          "@cds.persistence.name": "CATEGORY_ID",
          "@odata.foreignKey4": "category",
          "type": "cds.Integer"
        }
      },
      "$syntax": "projection"
    },
    "Country": {
      "kind": "type",
      "@Common.Label": "{i18n>Country}",
      "@Core.Description": "{i18n>CountryCode.Description}",
      "@cds.persistence.name": "COUNTRY",
      "type": "cds.Association",
      "target": "sap.common.Countries",
      "keys": [
        {
          "ref": [
            "code"
          ]
        }
      ]
    },
    "Currency": {
      "kind": "type",
      "@Common.Label": "{i18n>Currency}",
      "@Core.Description": "{i18n>CurrencyCode.Description}",
      "@cds.persistence.name": "CURRENCY",
      "type": "cds.Association",
      "target": "sap.common.Currencies",
      "keys": [
        {
          "ref": [
            "code"
          ]
        }
      ]
    },
    "Language": {
      "kind": "type",
      "@Common.Label": "{i18n>Language}",
      "@Core.Description": "{i18n>LanguageCode.Description}",
      "@cds.persistence.name": "LANGUAGE",
      "type": "cds.Association",
      "target": "sap.common.Languages",
      "keys": [
        {
          "ref": [
            "code"
          ]
        }
      ]
    },
    "User": {
      "kind": "type",
      "@Common.Label": "{i18n>UserID}",
      "@Core.Description": "{i18n>UserID.Description}",
      "@cds.persistence.name": "USER",
      "type": "cds.String",
      "length": 255
    },
    "cuid": {
      "kind": "entity",
      "@cds.persistence.name": "CUID",
      "abstract": true,
      "elements": {
        "ID": {
          "@cds.persistence.name": "ID",
          "key": true,
          "type": "cds.UUID"
        }
      }
    },
    "localized.sap.common.Countries": {
      "kind": "entity",
      "@UI.Identification": [
        {
          "=": "name"
        }
      ],
      "@cds.autoexpose": true,
      "@cds.odata.valuelist": true,
      "@cds.persistence.name": "LOCALIZED_SAP_COMMON_COUNTRIES",
      "@cds.persistence.skip": "if-unused",
      "@odata.draft.enabled": false,
      "query": {
        "SELECT": {
          "from": {
            "ref": [
              "sap.common.Countries"
            ],
            "as": "L"
          },
          "columns": [
            "*",
            {
              "func": "coalesce",
              "args": [
                {
                  "ref": [
                    "L",
                    "localized",
                    "name"
                  ]
                },
                {
                  "ref": [
                    "L",
                    "name"
                  ]
                }
              ],
              "as": "name"
            },
            {
              "func": "coalesce",
              "args": [
                {
                  "ref": [
                    "L",
                    "localized",
                    "descr"
                  ]
                },
                {
                  "ref": [
                    "L",
                    "descr"
                  ]
                }
              ],
              "as": "descr"
            }
          ]
        }
      },
      "elements": {
        "name": {
          "@Common.Label": "{i18n>Name}",
          "@Core.Computed": true,
          "@cds.persistence.name": "NAME",
          "localized": true,
          "type": "cds.String",
          "length": 255
        },
        "descr": {
          "@Common.Label": "{i18n>Description}",
          "@Core.Computed": true,
          "@cds.persistence.name": "DESCR",
          "localized": true,
          "type": "cds.String",
          "length": 1000
        },
        "code": {
          "@Common.Label": "{i18n>CountryCode}",
          "@cds.persistence.name": "CODE",
          "key": true,
          "type": "cds.String",
          "length": 3
        },
        "texts": {
          "@cds.persistence.name": "TEXTS",
          "type": "cds.Composition",
          "cardinality": {
            "max": "*"
          },
          "target": "sap.common.Countries_texts",
          "on": [
            {
              "ref": [
                "texts",
                "code"
              ]
            },
            "=",
            {
              "ref": [
                "code"
              ]
            }
          ]
        },
        "localized": {
          "@cds.persistence.name": "LOCALIZED",
          "type": "cds.Association",
          "target": "sap.common.Countries_texts",
          "on": [
            {
              "ref": [
                "localized",
                "code"
              ]
            },
            "=",
            {
              "ref": [
                "code"
              ]
            },
            "and",
            {
              "ref": [
                "localized",
                "locale"
              ]
            },
            "=",
            {
              "ref": [
                "$user",
                "locale"
              ]
            }
          ]
        }
      }
    },
    "localized.sap.common.Currencies": {
      "kind": "entity",
      "@UI.Identification": [
        {
          "=": "name"
        }
      ],
      "@cds.autoexpose": true,
      "@cds.odata.valuelist": true,
      "@cds.persistence.name": "LOCALIZED_SAP_COMMON_CURRENCIES",
      "@cds.persistence.skip": "if-unused",
      "@odata.draft.enabled": false,
      "query": {
        "SELECT": {
          "from": {
            "ref": [
              "sap.common.Currencies"
            ],
            "as": "L"
          },
          "columns": [
            "*",
            {
              "func": "coalesce",
              "args": [
                {
                  "ref": [
                    "L",
                    "localized",
                    "name"
                  ]
                },
                {
                  "ref": [
                    "L",
                    "name"
                  ]
                }
              ],
              "as": "name"
            },
            {
              "func": "coalesce",
              "args": [
                {
                  "ref": [
                    "L",
                    "localized",
                    "descr"
                  ]
                },
                {
                  "ref": [
                    "L",
                    "descr"
                  ]
                }
              ],
              "as": "descr"
            }
          ]
        }
      },
      "elements": {
        "name": {
          "@Common.Label": "{i18n>Name}",
          "@Core.Computed": true,
          "@cds.persistence.name": "NAME",
          "localized": true,
          "type": "cds.String",
          "length": 255
        },
        "descr": {
          "@Common.Label": "{i18n>Description}",
          "@Core.Computed": true,
          "@cds.persistence.name": "DESCR",
          "localized": true,
          "type": "cds.String",
          "length": 1000
        },
        "code": {
          "@Common.Label": "{i18n>CurrencyCode}",
          "@cds.persistence.name": "CODE",
          "key": true,
          "type": "cds.String",
          "length": 3
        },
        "symbol": {
          "@Common.Label": "{i18n>CurrencySymbol}",
          "@cds.persistence.name": "SYMBOL",
          "type": "cds.String",
          "length": 5
        },
        "texts": {
          "@cds.persistence.name": "TEXTS",
          "type": "cds.Composition",
          "cardinality": {
            "max": "*"
          },
          "target": "sap.common.Currencies_texts",
          "on": [
            {
              "ref": [
                "texts",
                "code"
              ]
            },
            "=",
            {
              "ref": [
                "code"
              ]
            }
          ]
        },
        "localized": {
          "@cds.persistence.name": "LOCALIZED",
          "type": "cds.Association",
          "target": "sap.common.Currencies_texts",
          "on": [
            {
              "ref": [
                "localized",
                "code"
              ]
            },
            "=",
            {
              "ref": [
                "code"
              ]
            },
            "and",
            {
              "ref": [
                "localized",
                "locale"
              ]
            },
            "=",
            {
              "ref": [
                "$user",
                "locale"
              ]
            }
          ]
        }
      }
    },
    "localized.sap.common.Languages": {
      "kind": "entity",
      "@UI.Identification": [
        {
          "=": "name"
        }
      ],
      "@cds.autoexpose": true,
      "@cds.odata.valuelist": true,
      "@cds.persistence.name": "LOCALIZED_SAP_COMMON_LANGUAGES",
      "@cds.persistence.skip": "if-unused",
      "@odata.draft.enabled": false,
      "query": {
        "SELECT": {
          "from": {
            "ref": [
              "sap.common.Languages"
            ],
            "as": "L"
          },
          "columns": [
            "*",
            {
              "func": "coalesce",
              "args": [
                {
                  "ref": [
                    "L",
                    "localized",
                    "name"
                  ]
                },
                {
                  "ref": [
                    "L",
                    "name"
                  ]
                }
              ],
              "as": "name"
            },
            {
              "func": "coalesce",
              "args": [
                {
                  "ref": [
                    "L",
                    "localized",
                    "descr"
                  ]
                },
                {
                  "ref": [
                    "L",
                    "descr"
                  ]
                }
              ],
              "as": "descr"
            }
          ]
        }
      },
      "elements": {
        "name": {
          "@Common.Label": "{i18n>Name}",
          "@Core.Computed": true,
          "@cds.persistence.name": "NAME",
          "localized": true,
          "type": "cds.String",
          "length": 255
        },
        "descr": {
          "@Common.Label": "{i18n>Description}",
          "@Core.Computed": true,
          "@cds.persistence.name": "DESCR",
          "localized": true,
          "type": "cds.String",
          "length": 1000
        },
        "code": {
          "@Common.Label": "{i18n>LanguageCode}",
          "@cds.persistence.name": "CODE",
          "key": true,
          "type": "cds.String",
          "length": 14
        },
        "texts": {
          "@cds.persistence.name": "TEXTS",
          "type": "cds.Composition",
          "cardinality": {
            "max": "*"
          },
          "target": "sap.common.Languages_texts",
          "on": [
            {
              "ref": [
                "texts",
                "code"
              ]
            },
            "=",
            {
              "ref": [
                "code"
              ]
            }
          ]
        },
        "localized": {
          "@cds.persistence.name": "LOCALIZED",
          "type": "cds.Association",
          "target": "sap.common.Languages_texts",
          "on": [
            {
              "ref": [
                "localized",
                "code"
              ]
            },
            "=",
            {
              "ref": [
                "code"
              ]
            },
            "and",
            {
              "ref": [
                "localized",
                "locale"
              ]
            },
            "=",
            {
              "ref": [
                "$user",
                "locale"
              ]
            }
          ]
        }
      }
    },
    "managed": {
      "kind": "type",
      "@cds.persistence.name": "MANAGED",
      "elements": {
        "createdAt": {
          "@Common.Label": "{i18n>CreatedAt}",
          "@Core.Computed": true,
          "@Core.Immutable": true,
          "@UI.HiddenFilter": true,
          "@cds.on.insert": {
            "=": "$now"
          },
          "@cds.persistence.name": "CREATEDAT",
          "@odata.on.insert": {
            "#": "now"
          },
          "@readonly": true,
          "type": "cds.Timestamp"
        },
        "createdBy": {
          "@Common.Label": "{i18n>CreatedBy}",
          "@Core.Computed": true,
          "@Core.Description": "{i18n>UserID.Description}",
          "@Core.Immutable": true,
          "@UI.HiddenFilter": true,
          "@cds.on.insert": {
            "=": "$user"
          },
          "@cds.persistence.name": "CREATEDBY",
          "@odata.on.insert": {
            "#": "user"
          },
          "@readonly": true,
          "type": "cds.String",
          "length": 255
        },
        "modifiedAt": {
          "@Common.Label": "{i18n>ChangedAt}",
          "@Core.Computed": true,
          "@UI.HiddenFilter": true,
          "@cds.on.insert": {
            "=": "$now"
          },
          "@cds.on.update": {
            "=": "$now"
          },
          "@cds.persistence.name": "MODIFIEDAT",
          "@odata.on.update": {
            "#": "now"
          },
          "@readonly": true,
          "type": "cds.Timestamp"
        },
        "modifiedBy": {
          "@Common.Label": "{i18n>ChangedBy}",
          "@Core.Computed": true,
          "@Core.Description": "{i18n>UserID.Description}",
          "@UI.HiddenFilter": true,
          "@cds.on.insert": {
            "=": "$user"
          },
          "@cds.on.update": {
            "=": "$user"
          },
          "@cds.persistence.name": "MODIFIEDBY",
          "@odata.on.update": {
            "#": "user"
          },
          "@readonly": true,
          "type": "cds.String",
          "length": 255
        }
      },
      "$syntax": "aspect"
    },
    "my.shop.Categories": {
      "kind": "entity",
      "@cds.persistence.name": "MY_SHOP_CATEGORIES",
      "elements": {
        "ID": {
          "@cds.persistence.name": "ID",
          "key": true,
          "type": "cds.Integer"
        },
        "catName": {
          "@cds.persistence.name": "CATNAME",
          "type": "cds.String"
        },
        "prod": {
          "@cds.persistence.name": "PROD",
          "type": "cds.Association",
          "cardinality": {
            "min": 0,
            "max": "*"
          },
          "target": "my.shop.Product",
          "on": [
            {
              "ref": [
                "prod",
                "category"
              ]
            },
            "=",
            {
              "ref": [
                "$self"
              ]
            }
          ]
        }
      }
    },
    "my.shop.Comments": {
      "kind": "entity",
      "@cds.persistence.name": "MY_SHOP_COMMENTS",
      "includes": [
        "managed"
      ],
      "elements": {
        "createdAt": {
          "@Common.Label": "{i18n>CreatedAt}",
          "@Core.Computed": true,
          "@Core.Immutable": true,
          "@UI.HiddenFilter": true,
          "@cds.on.insert": {
            "=": "$now"
          },
          "@cds.persistence.name": "CREATEDAT",
          "@odata.on.insert": {
            "#": "now"
          },
          "@readonly": true,
          "type": "cds.Timestamp"
        },
        "createdBy": {
          "@Common.Label": "{i18n>CreatedBy}",
          "@Core.Computed": true,
          "@Core.Description": "{i18n>UserID.Description}",
          "@Core.Immutable": true,
          "@UI.HiddenFilter": true,
          "@cds.on.insert": {
            "=": "$user"
          },
          "@cds.persistence.name": "CREATEDBY",
          "@odata.on.insert": {
            "#": "user"
          },
          "@readonly": true,
          "type": "cds.String",
          "length": 255
        },
        "modifiedAt": {
          "@Common.Label": "{i18n>ChangedAt}",
          "@Core.Computed": true,
          "@UI.HiddenFilter": true,
          "@cds.on.insert": {
            "=": "$now"
          },
          "@cds.on.update": {
            "=": "$now"
          },
          "@cds.persistence.name": "MODIFIEDAT",
          "@odata.on.update": {
            "#": "now"
          },
          "@readonly": true,
          "type": "cds.Timestamp"
        },
        "modifiedBy": {
          "@Common.Label": "{i18n>ChangedBy}",
          "@Core.Computed": true,
          "@Core.Description": "{i18n>UserID.Description}",
          "@UI.HiddenFilter": true,
          "@cds.on.insert": {
            "=": "$user"
          },
          "@cds.on.update": {
            "=": "$user"
          },
          "@cds.persistence.name": "MODIFIEDBY",
          "@odata.on.update": {
            "#": "user"
          },
          "@readonly": true,
          "type": "cds.String",
          "length": 255
        },
        "ID": {
          "@cds.persistence.name": "ID",
          "key": true,
          "type": "cds.UUID"
        },
        "comment": {
          "@cds.persistence.name": "COMMENT",
          "type": "cds.String"
        },
        "prodId": {
          "@cds.persistence.name": "PRODID",
          "type": "cds.Association",
          "cardinality": {
            "max": 1
          },
          "target": "my.shop.Product",
          "keys": [
            {
              "ref": [
                "ID"
              ],
              "$generatedFieldName": "prodId_ID"
            }
          ]
        },
        "prodId_ID": {
          "@cds.persistence.name": "PRODID_ID",
          "@odata.foreignKey4": "prodId",
          "type": "cds.Integer"
        }
      }
    },
    "my.shop.Product": {
      "kind": "entity",
      "@cds.persistence.name": "MY_SHOP_PRODUCT",
      "elements": {
        "ID": {
          "@cds.persistence.name": "ID",
          "key": true,
          "type": "cds.Integer"
        },
        "prodName": {
          "@cds.persistence.name": "PRODNAME",
          "type": "cds.String"
        },
        "price": {
          "@cds.persistence.name": "PRICE",
          "type": "cds.Integer"
        },
        "stock": {
          "@cds.persistence.name": "STOCK",
          "type": "cds.Integer"
        },
        "description": {
          "@cds.persistence.name": "DESCRIPTION",
          "type": "cds.String"
        },
        "category": {
          "@cds.persistence.name": "CATEGORY",
          "type": "cds.Association",
          "cardinality": {
            "max": 1
          },
          "target": "my.shop.Categories",
          "keys": [
            {
              "ref": [
                "ID"
              ],
              "$generatedFieldName": "category_ID"
            }
          ]
        },
        "comment": {
          "@cds.persistence.name": "COMMENT",
          "type": "cds.Association",
          "cardinality": {
            "min": 0,
            "max": "*"
          },
          "target": "my.shop.Comments",
          "on": [
            {
              "ref": [
                "comment",
                "prodId"
              ]
            },
            "=",
            {
              "ref": [
                "$self"
              ]
            }
          ]
        },
        "category_ID": {
          "@cds.persistence.name": "CATEGORY_ID",
          "@odata.foreignKey4": "category",
          "type": "cds.Integer"
        }
      }
    },
    "sap.common": {
      "kind": "context"
    },
    "sap.common.CodeList": {
      "kind": "type",
      "@UI.Identification": [
        {
          "=": "name"
        }
      ],
      "@cds.autoexpose": true,
      "@cds.odata.valuelist": true,
      "@cds.persistence.name": "SAP_COMMON_CODELIST",
      "@cds.persistence.skip": "if-unused",
      "elements": {
        "name": {
          "@Common.Label": "{i18n>Name}",
          "@cds.persistence.name": "NAME",
          "localized": true,
          "type": "cds.String",
          "length": 255
        },
        "descr": {
          "@Common.Label": "{i18n>Description}",
          "@cds.persistence.name": "DESCR",
          "localized": true,
          "type": "cds.String",
          "length": 1000
        }
      },
      "$syntax": "aspect"
    },
    "sap.common.Countries": {
      "kind": "entity",
      "@UI.Identification": [
        {
          "=": "name"
        }
      ],
      "@cds.autoexpose": true,
      "@cds.odata.valuelist": true,
      "@cds.persistence.name": "SAP_COMMON_COUNTRIES",
      "@cds.persistence.skip": "if-unused",
      "includes": [
        "sap.common.CodeList"
      ],
      "elements": {
        "name": {
          "@Common.Label": "{i18n>Name}",
          "@cds.persistence.name": "NAME",
          "localized": true,
          "type": "cds.String",
          "length": 255
        },
        "descr": {
          "@Common.Label": "{i18n>Description}",
          "@cds.persistence.name": "DESCR",
          "localized": true,
          "type": "cds.String",
          "length": 1000
        },
        "code": {
          "@Common.Label": "{i18n>CountryCode}",
          "@cds.persistence.name": "CODE",
          "key": true,
          "type": "cds.String",
          "length": 3
        },
        "texts": {
          "@cds.persistence.name": "TEXTS",
          "type": "cds.Composition",
          "cardinality": {
            "max": "*"
          },
          "target": "sap.common.Countries_texts",
          "on": [
            {
              "ref": [
                "texts",
                "code"
              ]
            },
            "=",
            {
              "ref": [
                "code"
              ]
            }
          ]
        },
        "localized": {
          "@cds.persistence.name": "LOCALIZED",
          "type": "cds.Association",
          "target": "sap.common.Countries_texts",
          "on": [
            {
              "ref": [
                "localized",
                "code"
              ]
            },
            "=",
            {
              "ref": [
                "code"
              ]
            },
            "and",
            {
              "ref": [
                "localized",
                "locale"
              ]
            },
            "=",
            {
              "ref": [
                "$user",
                "locale"
              ]
            }
          ]
        }
      }
    },
    "sap.common.Countries_texts": {
      "kind": "entity",
      "@cds.autoexpose": true,
      "@cds.persistence.name": "SAP_COMMON_COUNTRIES_TEXTS",
      "@odata.draft.enabled": false,
      "elements": {
        "locale": {
          "@cds.persistence.name": "LOCALE",
          "key": true,
          "type": "cds.String",
          "length": 14
        },
        "name": {
          "@Common.Label": "{i18n>Name}",
          "@cds.persistence.name": "NAME",
          "localized": false,
          "type": "cds.String",
          "length": 255
        },
        "descr": {
          "@Common.Label": "{i18n>Description}",
          "@cds.persistence.name": "DESCR",
          "localized": false,
          "type": "cds.String",
          "length": 1000
        },
        "code": {
          "@Common.Label": "{i18n>CountryCode}",
          "@cds.persistence.name": "CODE",
          "@odata.containment.ignore": true,
          "key": true,
          "type": "cds.String",
          "length": 3
        }
      }
    },
    "sap.common.Currencies": {
      "kind": "entity",
      "@UI.Identification": [
        {
          "=": "name"
        }
      ],
      "@cds.autoexpose": true,
      "@cds.odata.valuelist": true,
      "@cds.persistence.name": "SAP_COMMON_CURRENCIES",
      "@cds.persistence.skip": "if-unused",
      "includes": [
        "sap.common.CodeList"
      ],
      "elements": {
        "name": {
          "@Common.Label": "{i18n>Name}",
          "@cds.persistence.name": "NAME",
          "localized": true,
          "type": "cds.String",
          "length": 255
        },
        "descr": {
          "@Common.Label": "{i18n>Description}",
          "@cds.persistence.name": "DESCR",
          "localized": true,
          "type": "cds.String",
          "length": 1000
        },
        "code": {
          "@Common.Label": "{i18n>CurrencyCode}",
          "@cds.persistence.name": "CODE",
          "key": true,
          "type": "cds.String",
          "length": 3
        },
        "symbol": {
          "@Common.Label": "{i18n>CurrencySymbol}",
          "@cds.persistence.name": "SYMBOL",
          "type": "cds.String",
          "length": 5
        },
        "texts": {
          "@cds.persistence.name": "TEXTS",
          "type": "cds.Composition",
          "cardinality": {
            "max": "*"
          },
          "target": "sap.common.Currencies_texts",
          "on": [
            {
              "ref": [
                "texts",
                "code"
              ]
            },
            "=",
            {
              "ref": [
                "code"
              ]
            }
          ]
        },
        "localized": {
          "@cds.persistence.name": "LOCALIZED",
          "type": "cds.Association",
          "target": "sap.common.Currencies_texts",
          "on": [
            {
              "ref": [
                "localized",
                "code"
              ]
            },
            "=",
            {
              "ref": [
                "code"
              ]
            },
            "and",
            {
              "ref": [
                "localized",
                "locale"
              ]
            },
            "=",
            {
              "ref": [
                "$user",
                "locale"
              ]
            }
          ]
        }
      }
    },
    "sap.common.Currencies_texts": {
      "kind": "entity",
      "@cds.autoexpose": true,
      "@cds.persistence.name": "SAP_COMMON_CURRENCIES_TEXTS",
      "@odata.draft.enabled": false,
      "elements": {
        "locale": {
          "@cds.persistence.name": "LOCALE",
          "key": true,
          "type": "cds.String",
          "length": 14
        },
        "name": {
          "@Common.Label": "{i18n>Name}",
          "@cds.persistence.name": "NAME",
          "localized": false,
          "type": "cds.String",
          "length": 255
        },
        "descr": {
          "@Common.Label": "{i18n>Description}",
          "@cds.persistence.name": "DESCR",
          "localized": false,
          "type": "cds.String",
          "length": 1000
        },
        "code": {
          "@Common.Label": "{i18n>CurrencyCode}",
          "@cds.persistence.name": "CODE",
          "@odata.containment.ignore": true,
          "key": true,
          "type": "cds.String",
          "length": 3
        }
      }
    },
    "sap.common.Languages": {
      "kind": "entity",
      "@UI.Identification": [
        {
          "=": "name"
        }
      ],
      "@cds.autoexpose": true,
      "@cds.odata.valuelist": true,
      "@cds.persistence.name": "SAP_COMMON_LANGUAGES",
      "@cds.persistence.skip": "if-unused",
      "includes": [
        "sap.common.CodeList"
      ],
      "elements": {
        "name": {
          "@Common.Label": "{i18n>Name}",
          "@cds.persistence.name": "NAME",
          "localized": true,
          "type": "cds.String",
          "length": 255
        },
        "descr": {
          "@Common.Label": "{i18n>Description}",
          "@cds.persistence.name": "DESCR",
          "localized": true,
          "type": "cds.String",
          "length": 1000
        },
        "code": {
          "@Common.Label": "{i18n>LanguageCode}",
          "@cds.persistence.name": "CODE",
          "key": true,
          "type": "cds.String",
          "length": 14
        },
        "texts": {
          "@cds.persistence.name": "TEXTS",
          "type": "cds.Composition",
          "cardinality": {
            "max": "*"
          },
          "target": "sap.common.Languages_texts",
          "on": [
            {
              "ref": [
                "texts",
                "code"
              ]
            },
            "=",
            {
              "ref": [
                "code"
              ]
            }
          ]
        },
        "localized": {
          "@cds.persistence.name": "LOCALIZED",
          "type": "cds.Association",
          "target": "sap.common.Languages_texts",
          "on": [
            {
              "ref": [
                "localized",
                "code"
              ]
            },
            "=",
            {
              "ref": [
                "code"
              ]
            },
            "and",
            {
              "ref": [
                "localized",
                "locale"
              ]
            },
            "=",
            {
              "ref": [
                "$user",
                "locale"
              ]
            }
          ]
        }
      }
    },
    "sap.common.Languages_texts": {
      "kind": "entity",
      "@cds.autoexpose": true,
      "@cds.persistence.name": "SAP_COMMON_LANGUAGES_TEXTS",
      "@odata.draft.enabled": false,
      "elements": {
        "locale": {
          "@cds.persistence.name": "LOCALE",
          "key": true,
          "type": "cds.String",
          "length": 14
        },
        "name": {
          "@Common.Label": "{i18n>Name}",
          "@cds.persistence.name": "NAME",
          "localized": false,
          "type": "cds.String",
          "length": 255
        },
        "descr": {
          "@Common.Label": "{i18n>Description}",
          "@cds.persistence.name": "DESCR",
          "localized": false,
          "type": "cds.String",
          "length": 1000
        },
        "code": {
          "@Common.Label": "{i18n>LanguageCode}",
          "@cds.persistence.name": "CODE",
          "@odata.containment.ignore": true,
          "key": true,
          "type": "cds.String",
          "length": 14
        }
      }
    },
    "temporal": {
      "kind": "type",
      "@cds.persistence.name": "TEMPORAL",
      "elements": {
        "validFrom": {
          "@cds.persistence.name": "VALIDFROM",
          "@cds.valid.from": true,
          "type": "cds.Timestamp"
        },
        "validTo": {
          "@cds.persistence.name": "VALIDTO",
          "@cds.valid.to": true,
          "type": "cds.Timestamp"
        }
      },
      "$syntax": "aspect"
    }
  },
  "meta": {
    "creator": "CDS Compiler v1.26.2"
  },
  "$version": "1.0",
  "@sql_mapping": "plain"
}